co\edu\uniquindio\avalon\test\CoachServicioTest.class
co\edu\uniquindio\avalon\test\UsuarioServicioTest.class
co\edu\uniquindio\avalon\test\ClaseServicioTest.class
co\edu\uniquindio\avalon\test\FacturaClaseServicioTest.class
co\edu\uniquindio\avalon\test\HorarioServicioTest.class
co\edu\uniquindio\avalon\test\EstadoClaseServicioTest.class
co\edu\uniquindio\avalon\test\RecargaServicioTest.class
co\edu\uniquindio\avalon\test\EspecialidadServicioTest.class
co\edu\uniquindio\avalon\test\JuegoServicioTest.class
co\edu\uniquindio\avalon\test\CategoriaServicioTest.class
