co\edu\uniquindio\avalon\bean\HorarioBean.class
co\edu\uniquindio\avalon\bean\ClasesBean.class
co\edu\uniquindio\avalon\filter\SeguridadFilter.class
co\edu\uniquindio\avalon\bean\EmailBean.class
co\edu\uniquindio\avalon\bean\ProfesorBean.class
co\edu\uniquindio\avalon\bean\PerfilBean.class
co\edu\uniquindio\avalon\config\PaginaPrincipalConfig.class
co\edu\uniquindio\avalon\bean\EmailBean$2.class
co\edu\uniquindio\avalon\bean\LoginBean.class
co\edu\uniquindio\avalon\rest\UsuarioRestController.class
co\edu\uniquindio\avalon\bean\EmailBean$1.class
co\edu\uniquindio\avalon\bean\RecargaBean.class
co\edu\uniquindio\avalon\config\InformacionPorDefecto.class
co\edu\uniquindio\avalon\WebApplication.class
